%YAML 1.1
%TAG !u! tag:unity3d.com,2011:
--- !u!1 &114582
GameObject:
  m_ObjectHideFlags: 0
  m_PrefabParentObject: {fileID: 0}
  m_PrefabInternal: {fileID: 100100000}
  serializedVersion: 4
  m_Component:
  - 224: {fileID: 22427368}
  - 114: {fileID: 114000010084739658}
  m_Layer: 5
  m_Name: popupManager
  m_TagString: Untagged
  m_Icon: {fileID: 0}
  m_NavMeshLayer: 0
  m_StaticEditorFlags: 0
  m_IsActive: 1
--- !u!224 &22427368
RectTransform:
  m_ObjectHideFlags: 1
  m_PrefabParentObject: {fileID: 0}
  m_PrefabInternal: {fileID: 100100000}
  m_GameObject: {fileID: 114582}
  m_LocalRotation: {x: 0, y: 0, z: 0, w: 1}
  m_LocalPosition: {x: 0, y: 0, z: 0}
  m_LocalScale: {x: 1, y: 1, z: 1}
  m_LocalEulerAnglesHint: {x: 0, y: 0, z: 0}
  m_Children: []
  m_Father: {fileID: 0}
  m_RootOrder: 0
  m_AnchorMin: {x: 0.3, y: 0.85}
  m_AnchorMax: {x: 0.7, y: 0.97}
  m_AnchoredPosition: {x: 0, y: 0}
  m_SizeDelta: {x: 0, y: 0}
  m_Pivot: {x: 0.5, y: 0.5}
--- !u!1001 &100100000
Prefab:
  m_ObjectHideFlags: 1
  serializedVersion: 2
  m_Modification:
    m_TransformParent: {fileID: 0}
    m_Modifications: []
    m_RemovedComponents: []
  m_ParentPrefab: {fileID: 0}
  m_RootGameObject: {fileID: 114582}
  m_IsPrefabParent: 1
--- !u!114 &114000010084739658
MonoBehaviour:
  m_ObjectHideFlags: 1
  m_PrefabParentObject: {fileID: 0}
  m_PrefabInternal: {fileID: 100100000}
  m_GameObject: {fileID: 114582}
  m_Enabled: 1
  m_EditorHideFlags: 0
  m_Script: {fileID: 11500000, guid: a45363ab6091f2b46a892678fabd925e, type: 3}
  m_Name: 
  m_EditorClassIdentifier: 
  defaultFadeInTime: 0.4
  defaultFadeOutTime: 0.2
  defaultHoldTime: 1.5
  defaultBackgrdCol: {r: 1, g: 0, b: 0, a: 0}
  defaultTxtCol: {r: 1, g: 1, b: 1, a: 0}
  minSize: 0.2
  maxSize: 1
  minAplha: 0.2
  maxAplha: 0.8
  currentlyRunning: 0
  currentMsg: 
  currentFadeInTime: 0
  currentFadeOutTime: 0
  currentholdTime: 0
  currentBackgrdCol: {r: 0, g: 0, b: 0, a: 0}
  currentTxtCol: {r: 0, g: 0, b: 0, a: 0}
  startTime: 0
  popupList: []
  popupPrefab: {fileID: 142830, guid: 39da44607367c9c4b9df972e74df002c, type: 2}
